<svg width="24" height="24" viewBox="0 0 24 24" fill="none" xmlns="http://www.w3.org/2000/svg">
<path d="M4 2H20C21.1 2 21.99 2.9 21.99 4L22 22L18 18H4C2.9 18 2 17.1 2 16V4C2 2.9 2.9 2 4 2ZM11 14H13V12H11V14ZM11 10H13V6H11V10Z" fill="white"/>
</svg>
