<svg width="80" height="80" viewBox="0 0 80 80" fill="none" xmlns="http://www.w3.org/2000/svg">
<path d="M51.6667 36.667C54.4281 36.667 56.6667 34.4284 56.6667 31.667C56.6667 28.9056 54.4281 26.667 51.6667 26.667C48.9053 26.667 46.6667 28.9056 46.6667 31.667C46.6667 34.4284 48.9053 36.667 51.6667 36.667Z" fill="#F2994A"/>
<path d="M28.3333 36.667C31.0947 36.667 33.3333 34.4284 33.3333 31.667C33.3333 28.9056 31.0947 26.667 28.3333 26.667C25.5719 26.667 23.3333 28.9056 23.3333 31.667C23.3333 34.4284 25.5719 36.667 28.3333 36.667Z" fill="#F2994A"/>
<path d="M39.9667 6.66699C21.5667 6.66699 6.66669 21.6003 6.66669 40.0003C6.66669 58.4003 21.5667 73.3337 39.9667 73.3337C58.4 73.3337 73.3334 58.4003 73.3334 40.0003C73.3334 21.6003 58.4 6.66699 39.9667 6.66699ZM40 66.667C25.2667 66.667 13.3334 54.7337 13.3334 40.0003C13.3334 25.267 25.2667 13.3337 40 13.3337C54.7334 13.3337 66.6667 25.267 66.6667 40.0003C66.6667 54.7337 54.7334 66.667 40 66.667ZM40 55.0003C42.4334 55.0003 44.6334 55.6337 46.5667 56.767C46.9667 56.3003 49.4334 53.5003 49.9334 52.967C47.1 51.1003 43.7 50.0003 40 50.0003C36.3 50.0003 32.9 51.1003 30.0334 52.9337C33.2667 56.567 30.0667 53.0003 33.4 56.7337C35.3667 55.6337 37.5667 55.0003 40 55.0003Z" fill="#F2994A"/>
</svg>
